-------------------------------------------------------------------------------
Test set: com.ProjetJEE.GestionAgenceLocation.GestionAgenceLocationApplicationTests
-------------------------------------------------------------------------------
Tests run: 1, Failures: 0, Errors: 0, Skipped: 0, Time elapsed: 9.89 s - in com.ProjetJEE.GestionAgenceLocation.GestionAgenceLocationApplicationTests
